{
    "name": "{{addonName}}",
    "description": "Atlassian Connect add-on",
    "key": "{{addonKey}}",
    "baseUrl": "{{baseURL}}",
    "vendor": {
        "name": "Atlassian Training",
        "url": "http://www.atlassian.com"
    },
    "authentication": {
        "type": "none"
    },
    "apiVersion": 1,
    "modules": {
        "generalPages": [
            {
                "url": "/helloyou.html",
                "key": "hello-world",
                "location": "system.top.navigation.bar",
                "name": {
                    "value": "Click me"
                }
            }
        ]
    }
}